{
    "track": "groovy",
    "exercise": "secret-handshake",
    "id": "e1346cba4cf64871bebdda0c0e7bb94b",
    "url": "https://exercism.io/tracks/groovy/exercises/secret-handshake/solutions/e1346cba4cf64871bebdda0c0e7bb94b",
    "handle": "heptalophos",
    "is_requester": true,
    "auto_approve": false
}