{
  "track": "groovy",
  "exercise": "high-scores",
  "id": "12e4f4b9f79c4537ac0a1596be16ab17",
  "url": "https://exercism.io/tracks/groovy/exercises/high-scores/solutions/12e4f4b9f79c4537ac0a1596be16ab17",
  "handle": "heptalophos",  
  "is_requester": true,
  "auto_approve": false
}